.......
----------------------------------------------------------------------
Ran 20 tests in 0.598s
OK
Name             Stmts   Miss Branch BrPart  Cover   Missing
------------------------------------------------------------
Collatz.py          60      0     30      0   100%
TestCollatz.py      86      0      0      0   100%
------------------------------------------------------------
TOTAL              146      0     30      0   100%
